Easy Install and Load the `Glycoverse` • glycoverse
…
To list all dependencies of glycoverse core packages, run:

glycoverse_deps(recursive = TRUE)  # recursive = TRUE to list dependencies of each package
#> 'getOption("repos")' replaces Bioconductor standard repositories, see
#> 'help("repositories", package = "BiocManager")' for details.
#> Replacement repositories:
#>     CRAN: https://cloud.r-project.org
#> # A tibble: 149 × 6
#>    package       source       remote upstream local   behind
#>    <chr>         <chr>        <chr>  <chr>    <chr>   <lgl> 
#>  1 ade4          cran         <NA>   1.7-23   1.7.23  FALSE 
#>  2 AnnotationDbi bioconductor <NA>   1.72.0   1.72.0  FALSE 
#>  3 askpass       cran         <NA>   1.2.1    1.2.1   FALSE 
#>  4 backports     cran         <NA>   1.5.0    1.5.0   FALSE 
#>  5 base64enc     cran         <NA>   0.1-3    0.1.3   FALSE 
#>  6 Biobase       bioconductor <NA>   2.70.0   2.70.0  FALSE 
#>  7 BiocBaseUtils bioconductor <NA>   1.12.0   1.12.0  FALSE 
#>  8 BiocFileCache bioconductor <NA>   3.0.0    3.0.0   FALSE 
#>  9 BiocGenerics  bioconductor <NA>   0.56.0   0.56.0  FALSE 
#> 10 BiocManager   cran         <NA>   1.30.27  1.30.27 FALSE 
#> # ℹ 139 more rows
…
