…
To list all dependencies of glycoverse core packages, run:

``` r
glycoverse_deps(recursive = TRUE)  # recursive = TRUE to list dependencies of each package
#> 'getOption("repos")' replaces Bioconductor standard repositories, see
#> 'help("repositories", package = "BiocManager")' for details.
#> Replacement repositories:
#>     CRAN: https://cloud.r-project.org
#> # A tibble: 127 × 6
#>    package  source remote                       upstream local  behind
#>    <chr>    <chr>  <chr>                        <chr>    <chr>  <lgl> 
#>  1 glyclean github glycoverse/glyclean@*release 0.12.0   0.12.0 FALSE 
#>  2 glydet   github glycoverse/glydet@*release   0.10.1   0.10.1 FALSE 
#>  3 glydraw  github glycoverse/glydraw@*release  0.3.1    0.3.1  FALSE 
#>  4 glyexp   github glycoverse/glyexp@*release   0.12.4   0.12.4 FALSE 
#>  5 glymotif github glycoverse/glymotif@*release 0.13.0   0.13.0 FALSE 
#>  6 glyparse github glycoverse/glyparse@*release 0.5.5    0.5.5  FALSE 
#>  7 glyread  github glycoverse/glyread@*release  0.9.0    0.9.0  FALSE 
#>  8 glyrepr  github glycoverse/glyrepr@*release  0.10.0   0.10.0 FALSE 
#>  9 glystats github glycoverse/glystats@*release 0.6.4    0.6.4  FALSE 
#> 10 glyvis   github glycoverse/glyvis@*release   0.5.0    0.5.0  FALSE 
#> # ℹ 117 more rows
```
…
