…
To list all dependencies of glycoverse core packages, run:

``` r
glycoverse_deps(recursive = TRUE)  # recursive = TRUE to list dependencies of each package
#> 'getOption("repos")' replaces Bioconductor standard repositories, see
#> 'help("repositories", package = "BiocManager")' for details.
#> Replacement repositories:
#>     CRAN: https://cloud.r-project.org
#> # A tibble: 127 × 5
#>    package  source    upstream local  behind
#>    <chr>    <chr>     <chr>    <chr>  <lgl> 
#>  1 glyclean runiverse 0.12.1   0.12.1 FALSE 
#>  2 glydet   runiverse 0.10.2   0.10.2 FALSE 
#>  3 glydraw  runiverse 0.3.1    0.3.1  FALSE 
#>  4 glyexp   runiverse 0.12.4   0.12.4 FALSE 
#>  5 glymotif runiverse 0.13.1   0.13.1 FALSE 
#>  6 glyparse runiverse 0.5.5    0.5.5  FALSE 
#>  7 glyread  runiverse 0.9.1    0.9.1  FALSE 
#>  8 glyrepr  runiverse 0.10.0   0.10.0 FALSE 
#>  9 glystats runiverse 0.6.5    0.6.5  FALSE 
#> 10 glyvis   runiverse 0.5.1    0.5.1  FALSE 
#> # ℹ 117 more rows
```
…
