Case Study: Glycomics • glycoverse
…
You can get these data components by using
get_expr_mat(), get_sample_info(), and
get_var_info().

get_expr_mat(real_experiment2)[1:5, 1:5]
#>          S1       S2       S3       S4       S5
#> V1 1354.352 1884.387 1389.444 2034.693 1472.504
#> V2 3315.779 2500.308 1247.036 3102.668 2903.602
#> V3 6940.940 5911.016 1686.319 4071.061 4349.991
#> V4 4437.816 7535.886 2053.077 4773.249 3142.817
#> V5 1346.274 1663.375 1043.464 1765.550 1184.083

get_sample_info(real_experiment2)
#> # A tibble: 144 × 2
#>    sample group
#>    <chr>  <chr>
#>  1 S1     H    
#>  2 S2     H    
#>  3 S3     Y    
#>  4 S4     C    
#>  5 S5     H    
#>  6 S6     C    
#>  7 S7     M    
#>  8 S8     C    
#>  9 S9     M    
#> 10 S10    M    
#> # ℹ 134 more rows

get_var_info(real_experiment2)
#> # A tibble: 67 × 3
#>    variable glycan_composition                  
#>    <chr>    <comp>                              
#>  1 V1       Man(3)GlcNAc(3)                     
#>  2 V2       Man(3)GlcNAc(7)                     
#>  3 V3       Man(5)GlcNAc(2)                     
#>  4 V4       Man(4)Gal(2)GlcNAc(4)Neu5Ac(2)      
#>  5 V5       Man(3)Gal(1)GlcNAc(3)               
#>  6 V6       Man(3)Gal(2)GlcNAc(4)Fuc(2)         
#>  7 V7       Man(3)GlcNAc(3)Fuc(1)               
#>  8 V8       Man(3)GlcNAc(4)                     
#>  9 V9       Man(3)Gal(2)GlcNAc(5)Neu5Ac(1)      
#> 10 V10      Man(3)Gal(1)GlcNAc(5)Fuc(1)Neu5Ac(1)
#> # ℹ 57 more rows
#> # ℹ 1 more variable: glycan_structure <struct>
…
As you can see, pca_res$tidy_result contains three tidy
tibbles, while pca_res$raw_result holds the original
prcomp object from stats::prcomp(). Check
?gly_pca for the complete breakdown.

Here’s what the samples tibble looks like:

pca_res$tidy_result$samples
#> # A tibble: 7,488 × 4
#>    sample group    PC  value
#>    <chr>  <chr> <dbl>  <dbl>
#>  1 S1     H         1  1.17 
#>  2 S1     H         2  1.17 
#>  3 S1     H         3 -1.18 
#>  4 S1     H         4 -1.79 
#>  5 S1     H         5  1.29 
#>  6 S1     H         6 -1.89 
#>  7 S1     H         7 -2.23 
#>  8 S1     H         8  1.48 
#>  9 S1     H         9 -1.65 
#> 10 S1     H        10 -0.477
#> # ℹ 7,478 more rows
…
Back to that autoplot() magic we saw earlier. It
automatically recognizes different glystats result types
and plots accordingly— no manual specification needed. The plots won’t
win any beauty contests, but they’ll get your data insights across
fast.

Now let’s dive into differential expression analysis using the
tried-and-true limma package.

limma_res <- gly_limma(clean_exp)  # from `glystats`
#> ℹ Number of groups: 4
#> ℹ Groups: "C", "H", "M", and "Y"
#> ℹ Performing multi-group limma analysis with 4 groups
limma_res$tidy_result
#> # A tibble: 312 × 10
#>    variable glycan_composition
#>    <chr>    <comp>            
#>  1 V1       Man(3)GlcNAc(3)   
#>  2 V1       Man(3)GlcNAc(3)   
#>  3 V1       Man(3)GlcNAc(3)   
#>  4 V1       Man(3)GlcNAc(3)   
#>  5 V1       Man(3)GlcNAc(3)   
#>  6 V1       Man(3)GlcNAc(3)   
#>  7 V2       Man(3)GlcNAc(7)   
#>  8 V2       Man(3)GlcNAc(7)   
#>  9 V2       Man(3)GlcNAc(7)   
#> 10 V2       Man(3)GlcNAc(7)   
#> # ℹ 302 more rows
#> # ℹ 8 more variables: glycan_structure <struct>, log2fc <dbl>, AveExpr <dbl>,
#> #   t <dbl>, p <dbl>, p_adj <dbl>, b <dbl>, contrast <chr>
…
