Case Study: Glycoproteomics • glycoverse
…
get_var_info(real_experiment)
#> # A tibble: 4,262 × 8
#>    variable peptide   peptide_site protein protein_site gene  glycan_composition
#>    <chr>    <chr>            <int> <chr>          <int> <chr> <comp>            
#>  1 GP1      JKTQGK               1 P08185           176 SERP… Hex(5)HexNAc(4)Ne…
#>  2 GP2      HSHNJJSS…            5 P04196           344 HRG   Hex(5)HexNAc(4)Ne…
#>  3 GP3      HSHNJJSS…            5 P04196           344 HRG   Hex(5)HexNAc(4)   
#>  4 GP4      HSHNJJSS…            5 P04196           344 HRG   Hex(5)HexNAc(4)Ne…
#>  5 GP5      HJSTGCLR             2 P10909           291 CLU   Hex(6)HexNAc(5)   
#>  6 GP6      HSHNJJSS…            5 P04196           344 HRG   Hex(5)HexNAc(4)Ne…
#>  7 GP7      HSHNJJSS…            6 P04196           345 HRG   Hex(5)HexNAc(4)   
#>  8 GP8      HSHNJJSS…            5 P04196           344 HRG   Hex(5)HexNAc(4)dH…
#>  9 GP9      HSHNJJSS…            5 P04196           344 HRG   Hex(4)HexNAc(3)   
#> 10 GP10     HSHNJJSS…            5 P04196           344 HRG   Hex(4)HexNAc(4)Ne…
#> # ℹ 4,252 more rows
#> # ℹ 1 more variable: glycan_structure <struct>
…
tidy_result: cleaned-up tibbles in
tidy format. We’ve done the heavy lifting of organizing messy
statistical output for you.

raw_result: the original statistical
objects. These are available when you need to dig deeper or perform
advanced analyses.

glystats provides two helper functions to get the tidy
result tibble and the raw result list from a glystats result object:
get_tidy_result() and get_raw_result(). Let’s
now see what the samples tibble looks like:

get_tidy_result(pca_res, "samples")  # many tibbles, so we specify one of them
#> # A tibble: 144 × 4
#>    sample    PC   value group
#>    <chr>  <dbl>   <dbl> <chr>
#>  1 C1         1 -21.3   C    
#>  2 C1         2  24.1   C    
#>  3 C1         3   0.965 C    
#>  4 C1         4   1.89  C    
#>  5 C1         5 -11.2   C    
#>  6 C1         6  25.8   C    
#>  7 C1         7  -6.01  C    
#>  8 C1         8  -5.10  C    
#>  9 C1         9  27.8   C    
#> 10 C1        10  -7.09  C    
#> # ℹ 134 more rows
…
The PCA clearly shows that our samples cluster nicely by
condition—always a good sign! Now let’s dive into differential
expression analysis using the tried-and-true limma
package.

limma_res <- gly_limma(clean_exp, contrasts = "H_vs_C")  # from `glystats`
#> ℹ Number of groups: 4
#> ℹ Groups: "C", "H", "M", and "Y"
#> ℹ Pairwise comparisons will be performed, with levels coming first as reference groups.
#> ℹ Performing multi-group limma analysis with 4 groups
get_tidy_result(limma_res)  # only one tibble here
#> # A tibble: 3,880 × 14
#>    variable log2fc AveExpr      t   p_val  p_adj     b ref_group test_group
#>    <chr>     <dbl>   <dbl>  <dbl>   <dbl>  <dbl> <dbl> <chr>     <chr>     
#>  1 V1       -2.54     19.4 -2.28  0.0469  0.153  -4.23 H         C         
#>  2 V2        7.94     25.5  4.07  0.00251 0.0272 -1.38 H         C         
#>  3 V3       -0.834    29.0 -1.70  0.121   0.275  -5.10 H         C         
#>  4 V4       -0.665    31.4 -1.58  0.148   0.309  -5.27 H         C         
#>  5 V5       -1.62     25.0 -3.15  0.0110  0.0661 -2.84 H         C         
#>  6 V6        0.340    33.7  0.665 0.522   0.693  -6.23 H         C         
#>  7 V7        5.75     22.4  3.69  0.00462 0.0395 -1.98 H         C         
#>  8 V8       -0.733    30.5 -1.34  0.211   0.384  -5.57 H         C         
#>  9 V9       -1.68     25.6 -2.63  0.0263  0.111  -3.68 H         C         
#> 10 V10      -1.66     28.1 -4.10  0.00241 0.0266 -1.34 H         C         
#> # ℹ 3,870 more rows
#> # ℹ 5 more variables: protein <chr>, gene <chr>, glycan_composition <comp>,
#> #   glycan_structure <struct>, protein_site <int>
…
Now, the glycoverse solution:

motif_anova_res <- clean_exp |>
  quantify_motifs(motifs) |>  # quantify these motifs
  gly_anova()  # and perform ANOVA
#> ℹ Number of groups: 4
#> ℹ Groups: "C", "H", "M", and "Y"
#> ℹ Pairwise comparisons will be performed, with levels coming first as reference groups.

get_tidy_result(motif_anova_res, "main_test")
#> # A tibble: 822 × 13
#>    variable term     df sumsq meansq statistic    p_val    p_adj post_hoc
#>    <chr>    <chr> <dbl> <dbl>  <dbl>     <dbl>    <dbl>    <dbl> <chr>   
#>  1 V1       group     3 73.6  24.5       5.63    0.0226   0.0683 NA      
#>  2 V10      group     3  0     0       NaN     NaN      NaN      NA      
#>  3 V100     group     3  0     0       NaN     NaN      NaN      NA      
#>  4 V101     group     3  2.51  0.837     1.22    0.365    0.459  NA      
#>  5 V102     group     3  1.56  0.521     0.992   0.444    0.524  NA      
#>  6 V103     group     3  0     0       NaN     NaN      NaN      NA      
#>  7 V104     group     3 40.7  13.6       1.21    0.367    0.459  NA      
#>  8 V105     group     3 40.7  13.6       1.21    0.367    0.459  NA      
#>  9 V106     group     3  0     0       NaN     NaN      NaN      NA      
#> 10 V107     group     3  2.66  0.886     3.81    0.0577   0.134  NA      
#> # ℹ 812 more rows
#> # ℹ 4 more variables: protein <chr>, protein_site <int>, motif <chr>,
#> #   gene <chr>
…
Want the specific glycosites with significant Lewis a/x epitopes?
Easy:

motif_anova_res |>
  get_tidy_result("main_test") |>
  filter(p_adj < 0.05, motif == "lewis_ax") |>
  select(protein, protein_site)
#> # A tibble: 48 × 2
#>    protein protein_site
#>    <chr>          <int>
#>  1 P01011           271
#>  2 P01019           161
#>  3 P01023           869
#>  4 P01042           205
#>  5 P01042           294
#>  6 P01859           176
#>  7 P01861           177
#>  8 P02675           394
#>  9 P02679            78
#> 10 P02749           162
#> # ℹ 38 more rows
…
That’s it! Just like quantify_motifs(),
derive_traits() creates a new experiment()
object, but now with trait values per glycosite per sample.

The variable information shows what we’re working with:

get_var_info(trait_exp)
#> # A tibble: 3,836 × 5
#>    variable protein protein_site trait gene 
#>    <chr>    <chr>          <int> <chr> <chr>
#>  1 V1       A6NJW9            49 TM    CD8B2
#>  2 V2       A6NJW9            49 TH    CD8B2
#>  3 V3       A6NJW9            49 TC    CD8B2
#>  4 V4       A6NJW9            49 MM    CD8B2
#>  5 V5       A6NJW9            49 CA2   CD8B2
#>  6 V6       A6NJW9            49 CA3   CD8B2
#>  7 V7       A6NJW9            49 CA4   CD8B2
#>  8 V8       A6NJW9            49 TF    CD8B2
#>  9 V9       A6NJW9            49 TFc   CD8B2
#> 10 V10      A6NJW9            49 TFa   CD8B2
#> # ℹ 3,826 more rows
…
