…
``` r
get_expr_mat(real_experiment2)[1:5, 1:5]
#>                                      S1       S2       S3       S4       S5
#> Man(3)GlcNAc(3)                1354.352 1884.387 1389.444 2034.693 1472.504
#> Man(3)GlcNAc(7)                3315.779 2500.308 1247.036 3102.668 2903.602
#> Man(5)GlcNAc(2)                6940.940 5911.016 1686.319 4071.061 4349.991
#> Man(4)Gal(2)GlcNAc(4)Neu5Ac(2) 4437.816 7535.886 2053.077 4773.249 3142.817
#> Man(3)Gal(1)GlcNAc(3)          1346.274 1663.375 1043.464 1765.550 1184.083
```

``` r
get_sample_info(real_experiment2)
#> # A tibble: 144 × 2
#>    sample group
#>    <chr>  <fct>
#>  1 S1     H    
#>  2 S2     H    
#>  3 S3     Y    
#>  4 S4     C    
#>  5 S5     H    
#>  6 S6     C    
#>  7 S7     M    
#>  8 S8     C    
#>  9 S9     M    
#> 10 S10    M    
#> # ℹ 134 more rows
```

``` r
get_var_info(real_experiment2)
#> # A tibble: 67 × 3
#>    variable                             glycan_composition      glycan_structure
#>    <glue>                               <comp>                  <struct>        
#>  1 Man(3)GlcNAc(3)                      Man(3)GlcNAc(3)         GlcNAc(?1-?)Man…
#>  2 Man(3)GlcNAc(7)                      Man(3)GlcNAc(7)         GlcNAc(?1-?)[Gl…
#>  3 Man(5)GlcNAc(2)                      Man(5)GlcNAc(2)         Man(?1-?)[Man(?…
#>  4 Man(4)Gal(2)GlcNAc(4)Neu5Ac(2)       Man(4)Gal(2)GlcNAc(4)N… Neu5Ac(?2-?)Gal…
#>  5 Man(3)Gal(1)GlcNAc(3)                Man(3)Gal(1)GlcNAc(3)   Gal(?1-?)GlcNAc…
#>  6 Man(3)Gal(2)GlcNAc(4)Fuc(2)          Man(3)Gal(2)GlcNAc(4)F… Gal(?1-?)GlcNAc…
#>  7 Man(3)GlcNAc(3)Fuc(1)                Man(3)GlcNAc(3)Fuc(1)   GlcNAc(?1-?)Man…
#>  8 Man(3)GlcNAc(4)                      Man(3)GlcNAc(4)         GlcNAc(?1-?)Man…
#>  9 Man(3)Gal(2)GlcNAc(5)Neu5Ac(1)       Man(3)Gal(2)GlcNAc(5)N… Neu5Ac(?2-?)Gal…
#> 10 Man(3)Gal(1)GlcNAc(5)Fuc(1)Neu5Ac(1) Man(3)Gal(1)GlcNAc(5)F… Neu5Ac(?2-?)Gal…
#> # ℹ 57 more rows
```
…
- **`tidy_result`**: cleaned-up tibbles in tidy format. We’ve done the
  heavy lifting of organizing messy statistical output for you.
- **`raw_result`**: the original statistical objects. These are
  available when you need to dig deeper or perform advanced analyses.

`glystats` provides two helper functions to get the tidy result tibble
and the raw result list from a glystats result object:
`get_tidy_result()` and `get_raw_result()`. Let’s now see what the
`samples` tibble looks like:

``` r
get_tidy_result(pca_res, "samples")  # many tibbles, so we specify one of them
#> # A tibble: 8,208 × 4
#>    sample group    PC  value
#>    <chr>  <fct> <dbl>  <dbl>
#>  1 S1     H         1 -0.932
#>  2 S1     H         2 -1.75 
#>  3 S1     H         3  0.530
#>  4 S1     H         4  1.83 
#>  5 S1     H         5 -1.10 
#>  6 S1     H         6 -2.44 
#>  7 S1     H         7 -1.62 
#>  8 S1     H         8 -1.54 
#>  9 S1     H         9 -1.13 
#> 10 S1     H        10  0.715
#> # ℹ 8,198 more rows
```
…
Now let’s dive into differential expression analysis using the
tried-and-true `limma` package.

``` r
limma_res <- gly_limma(clean_exp, contrasts = "H_vs_C")  # from `glystats`
#> ℹ Number of groups: 4
#> ℹ Groups: "H", "M", "Y", and "C"
#> ℹ Pairwise comparisons will be performed, with levels coming first as reference groups.
get_tidy_result(limma_res)  # only one tibble here
#> # A tibble: 57 × 11
#>    variable   glycan_composition glycan_structure  log2fc AveExpr       t  p_val
#>    <glue>     <comp>             <struct>           <dbl>   <dbl>   <dbl>  <dbl>
#>  1 Man(3)Glc… Man(3)GlcNAc(3)    GlcNAc(?1-?)Man… -0.195   -10.1  -1.48   0.142 
#>  2 Man(3)Glc… Man(3)GlcNAc(7)    GlcNAc(?1-?)[Gl… -0.0938   -9.16 -0.918  0.360 
#>  3 Man(5)Glc… Man(5)GlcNAc(2)    Man(?1-?)[Man(?…  0.0906   -8.09  0.669  0.505 
#>  4 Man(4)Gal… Man(4)Gal(2)GlcNA… Neu5Ac(?2-?)Gal… -0.0864   -8.49 -0.566  0.573 
#>  5 Man(3)Gal… Man(3)Gal(1)GlcNA… Gal(?1-?)GlcNAc… -0.124   -10.1  -1.24   0.218 
#>  6 Man(3)Gal… Man(3)Gal(2)GlcNA… Gal(?1-?)GlcNAc…  0.0105   -9.88  0.0893 0.929 
#>  7 Man(3)Glc… Man(3)GlcNAc(3)Fu… GlcNAc(?1-?)Man…  0.0679  -10.8   0.531  0.597 
#>  8 Man(3)Glc… Man(3)GlcNAc(4)    GlcNAc(?1-?)Man…  0.0923  -10.5   0.601  0.549 
#>  9 Man(3)Gal… Man(3)Gal(2)GlcNA… Neu5Ac(?2-?)Gal… -0.0383   -5.93 -0.685  0.494 
#> 10 Man(3)Gal… Man(3)Gal(1)GlcNA… Neu5Ac(?2-?)Gal…  0.255    -8.40  2.30   0.0229
#> # ℹ 47 more rows
#> # ℹ 4 more variables: p_adj <dbl>, b <dbl>, ref_group <chr>, test_group <chr>
```
…
